lab1/simulation/qsim/ActivitySuggestions.msim.vcd
$comment
	File created using the following command:
		vcd file ActivitySuggestions.msim.vcd -direction
$end
$date
	Thu Jan 16 19:25:00 2025
$end
$version
	ModelSim Version 2020.1
$end
$timescale
	1ps
$end

$scope module activitysuggestions_vhd_vec_tst $end
$var wire 1 ! BW_out $end
$var wire 1 " C_R $end
$var wire 1 # C_T $end
$var wire 1 $ C_W $end
$var wire 1 % CY_out $end
$var wire 1 & HG_out $end
$var wire 1 ' M_R $end
$var wire 1 ( M_T $end
$var wire 1 ) M_W $end
$var wire 1 * PS_out $end
$var wire 1 + VB_out $end

$scope module i1 $end
$var wire 1 , gnd $end
$var wire 1 - vcc $end
$var wire 1 . unknown $end
$var wire 1 / devoe $end
$var wire 1 0 devclrn $end
$var wire 1 1 devpor $end
$var wire 1 2 ww_devoe $end
$var wire 1 3 ww_devclrn $end
$var wire 1 4 ww_devpor $end
$var wire 1 5 ww_HG_out $end
$var wire 1 6 ww_M_W $end
$var wire 1 7 ww_M_R $end
$var wire 1 8 ww_PS_out $end
$var wire 1 9 ww_C_R $end
$var wire 1 : ww_C_T $end
$var wire 1 ; ww_VB_out $end
$var wire 1 < ww_C_W $end
$var wire 1 = ww_CY_out $end
$var wire 1 > ww_BW_out $end
$var wire 1 ? ww_M_T $end
$var wire 1 @ \M_T~input_o\ $end
$var wire 1 A \HG_out~output_o\ $end
$var wire 1 B \PS_out~output_o\ $end
$var wire 1 C \VB_out~output_o\ $end
$var wire 1 D \CY_out~output_o\ $end
$var wire 1 E \BW_out~output_o\ $end
$var wire 1 F \M_W~input_o\ $end
$var wire 1 G \M_R~input_o\ $end
$var wire 1 H \inst~combout\ $end
$var wire 1 I \C_R~input_o\ $end
$var wire 1 J \C_T~input_o\ $end
$var wire 1 K \inst5~0_combout\ $end
$var wire 1 L \C_W~input_o\ $end
$var wire 1 M \inst8~0_combout\ $end
$var wire 1 N \inst1~combout\ $end
$var wire 1 O \inst10~combout\ $end
$var wire 1 P \ALT_INV_M_W~input_o\ $end
$var wire 1 Q \ALT_INV_C_R~input_o\ $end
$var wire 1 R \ALT_INV_M_R~input_o\ $end
$var wire 1 S \ALT_INV_C_T~input_o\ $end
$var wire 1 T \ALT_INV_C_W~input_o\ $end
$upscope $end
$upscope $end
$enddefinitions $end
#0
$dumpvars
0!
0"
0#
0$
1%
0&
0'
0(
0)
0*
0+
0,
1-
x.
1/
10
11
12
13
14
05
06
07
08
09
0:
0;
0<
1=
0>
0?
0@
0A
0B
0C
1D
0E
0F
0G
0H
0I
0J
0K
0L
0M
1N
0O
1P
1Q
1R
1S
1T
$end
#50000
1#
1:
1J
0S
1K
1M
1C
1B
1;
18
1+
1*
#100000
0#
1(
0:
1?
1@
0J
1S
0K
0M
0C
0B
0;
08
0+
0*
#150000
1#
1:
1J
0S
1K
1M
1C
1B
1;
18
1+
1*
#200000
0#
0(
1"
0:
0?
19
1I
0@
0J
1S
0Q
1O
0K
0M
0C
0B
1E
0;
08
1>
0+
0*
1!
#250000
1#
1:
1J
0S
#300000
0#
1(
0:
1?
1@
0J
1S
#350000
1#
1:
1J
0S
#400000
0#
0(
0"
1'
0:
0?
09
17
1G
0I
0@
0J
1S
1Q
0R
0O
0E
0>
0!
#450000
1#
1:
1J
0S
1K
1M
1C
1B
1;
18
1+
1*
#500000
0#
1(
0:
1?
1@
0J
1S
0K
0M
0C
0B
0;
08
0+
0*
#550000
1#
1:
1J
0S
1K
1M
1C
1B
1;
18
1+
1*
#600000
0#
0(
1"
0:
0?
19
1I
0@
0J
1S
0Q
0N
0K
0M
0C
0B
0D
0;
08
0=
0+
0*
0%
#650000
1#
1:
1J
0S
#700000
0#
1(
0:
1?
1@
0J
1S
#750000
1#
1:
1J
0S
#800000
0#
0(
0"
0'
1$
0:
0?
09
07
1<
1L
0G
0I
0@
0J
1S
1Q
1R
0T
1N
1D
1=
1%
#850000
1#
1:
1J
0S
1K
1B
18
1*
#900000
0#
1(
0:
1?
1@
0J
1S
0K
0B
08
0*
#950000
1#
1:
1J
0S
1K
1B
18
1*
#1000000
0#
0(
1"
0:
0?
19
1I
0@
0J
1S
0Q
1O
0K
0B
1E
08
1>
0*
1!
#1050000
1#
1:
1J
0S
#1100000
0#
1(
0:
1?
1@
0J
1S
#1150000
1#
1:
1J
0S
#1200000
0#
0(
0"
1'
0:
0?
09
17
1G
0I
0@
0J
1S
1Q
0R
0O
0E
0>
0!
#1250000
1#
1:
1J
0S
1K
1B
18
1*
#1300000
0#
1(
0:
1?
1@
0J
1S
0K
0B
08
0*
#1350000
1#
1:
1J
0S
1K
1B
18
1*
#1400000
0#
0(
1"
0:
0?
19
1I
0@
0J
1S
0Q
0N
0K
0B
0D
08
0=
0*
0%
#1450000
1#
1:
1J
0S
#1500000
0#
1(
0:
1?
1@
0J
1S
#1550000
1#
1:
1J
0S
#1600000
0#
0(
0"
0'
0$
1)
0:
0?
09
07
0<
16
1F
0L
0G
0I
0@
0J
1S
1Q
1R
1T
0P
1H
1N
1D
1A
1=
15
1%
1&
#1650000
1#
1:
1J
0S
1M
1C
1;
1+
#1700000
0#
1(
0:
1?
1@
0J
1S
0M
0C
0;
0+
#1750000
1#
1:
1J
0S
1M
1C
1;
1+
#1800000
0#
0(
1"
0:
0?
19
1I
0@
0J
1S
0Q
1O
0M
0C
1E
0;
1>
0+
1!
#1850000
1#
1:
1J
0S
#1900000
0#
1(
0:
1?
1@
0J
1S
#1950000
1#
1:
1J
0S
#2000000
0#
0(
0"
1'
0:
0?
09
17
1G
0I
0@
0J
1S
1Q
0R
0H
0O
0E
0A
0>
05
0!
0&
#2050000
1#
1:
1J
0S
1K
1M
1C
1B
1;
18
1+
1*
#2100000
0#
1(
0:
1?
1@
0J
1S
0K
0M
0C
0B
0;
08
0+
0*
#2150000
1#
1:
1J
0S
1K
1M
1C
1B
1;
18
1+
1*
#2200000
0#
0(
1"
0:
0?
19
1I
0@
0J
1S
0Q
0N
0K
0M
0C
0B
0D
0;
08
0=
0+
0*
0%
#2250000
1#
1:
1J
0S
#2300000
0#
1(
0:
1?
1@
0J
1S
#2350000
1#
1:
1J
0S
#2400000
0#
0(
0"
0'
1$
0:
0?
09
07
1<
1L
0G
0I
0@
0J
1S
1Q
1R
0T
1H
1N
1D
1A
1=
15
1%
1&
#2450000
1#
1:
1J
0S
#2500000
0#
1(
0:
1?
1@
0J
1S
#2550000
1#
1:
1J
0S
#2600000
0#
0(
1"
0:
0?
19
1I
0@
0J
1S
0Q
1O
1E
1>
1!
#2650000
1#
1:
1J
0S
#2700000
0#
1(
0:
1?
1@
0J
1S
#2750000
1#
1:
1J
0S
#2800000
0#
0(
0"
1'
0:
0?
09
17
1G
0I
0@
0J
1S
1Q
0R
0H
0O
0E
0A
0>
05
0!
0&
#2850000
1#
1:
1J
0S
1K
1B
18
1*
#2900000
0#
1(
0:
1?
1@
0J
1S
0K
0B
08
0*
#2950000
1#
1:
1J
0S
1K
1B
18
1*
#3000000
0#
0(
1"
0:
0?
19
1I
0@
0J
1S
0Q
0N
0K
0B
0D
08
0=
0*
0%
#3050000
1#
1:
1J
0S
#3100000
0#
1(
0:
1?
1@
0J
1S
#3150000
1#
1:
1J
0S
